{
  "hash": "67847bebd35598561ccd6f8ae2eee40c",
  "result": {
    "markdown": "---\ntitle: 'A Data-driven Academic CV Generator for Quarto'\ndate: '2023-01-06'\nimage: image.jpg\ncategories: ['quarto', 'workflow']\ndescription: 'How to keep my academic vita looking good while mapping content to personal information' \ndraft: false\nexecute: \n  echo: false\n  message: false\n  warning: false\neditor_options: \n  chunk_output_type: console\n---\n\n::: {.cell}\n\n:::\n\n\nHow much time do we spent on writing applications?\n\n<i class='fab fa-r-project'></i>\n\nWriting applications sucks except for professional typewriters and people who do not need them. Try the Shinyapp for live exaples on how data can be fed into custom functions producing specificly well-formatted content according to each section included. \n\nUsing the basic template requires at least data regarding features of three different types of items:  \n\n- Career path stations (e.g. a csv linking from-to-periods with a description text)  \n- Scientific track record  (list of publictions usually provided as a bib file) \n- Certificates, academic awards   \n",
    "supporting": [],
    "filters": [
      "rmarkdown/pagebreak.lua"
    ],
    "includes": {},
    "engineDependencies": {},
    "preserve": {},
    "postProcess": true
  }
}