% $ biblatex auxiliary file $
% $ biblatex bbl format version 3.2 $
% Do not modify the above lines!
%
% This is an auxiliary file used by the 'biblatex' package.
% This file may safely be deleted. It will be recreated by
% biber as required.
%
\begingroup
\makeatletter
\@ifundefined{ver@biblatex.sty}
  {\@latex@error
     {Missing 'biblatex' package}
     {The bibliography requires the 'biblatex' package.}
      \aftergroup\endinput}
  {}
\endgroup


\refsection{0}
  \datalist[entry]{nty/global//global/global}
    \entry{behr2021}{article}{}
      \name{author}{107}{}{%
        {{hash=9d8b59b55cf2b968e5b59be070e4415c}{%
           family={Behr},
           familyi={B\bibinitperiod},
           given={Jürgen},
           giveni={J\bibinitperiod}}}%
        {{hash=2154083db953943847bda6245c5df444}{%
           family={Prasse},
           familyi={P\bibinitperiod},
           given={Antje},
           giveni={A\bibinitperiod}}}%
        {{hash=c1e1a3dc9d6a933e52abb7ec5abfe696}{%
           family={Kreuter},
           familyi={K\bibinitperiod},
           given={Michael},
           giveni={M\bibinitperiod}}}%
        {{hash=36b4d8503cbaf02c17dd232ae8a554f0}{%
           family={Johow},
           familyi={J\bibinitperiod},
           given={Johannes},
           giveni={J\bibinitperiod}}}%
        {{hash=4fc693db17e2975dd19bc97dafb24150}{%
           family={Rabe},
           familyi={R\bibinitperiod},
           given={Klaus\bibnamedelima F},
           giveni={K\bibinitperiod\bibinitdelim F\bibinitperiod}}}%
        {{hash=a27f9a35f222a898a7dfdec55539d5f4}{%
           family={Bonella},
           familyi={B\bibinitperiod},
           given={Francesco},
           giveni={F\bibinitperiod}}}%
        {{hash=fda0f4a22b0584c090dab60c36a0f91f}{%
           family={Bonnet},
           familyi={B\bibinitperiod},
           given={Reiner},
           giveni={R\bibinitperiod}}}%
        {{hash=bb161900cafd006abd1f2de8159c054e}{%
           family={Grohe},
           familyi={G\bibinitperiod},
           given={Christian},
           giveni={C\bibinitperiod}}}%
        {{hash=d9c4323cc0237f2290f3bf00a942ca4f}{%
           family={Held},
           familyi={H\bibinitperiod},
           given={Matthias},
           giveni={M\bibinitperiod}}}%
        {{hash=9352d5226e1261af57a858310a349c49}{%
           family={Wilkens},
           familyi={W\bibinitperiod},
           given={Heinrike},
           giveni={H\bibinitperiod}}}%
        {{hash=070b41fa7758c08cc07843ba1361e4a9}{%
           family={Hammerl},
           familyi={H\bibinitperiod},
           given={Peter},
           giveni={P\bibinitperiod}}}%
        {{hash=68518de56fbddc2fae5c87f03752a365}{%
           family={Koschel},
           familyi={K\bibinitperiod},
           given={Dirk},
           giveni={D\bibinitperiod}}}%
        {{hash=bfc2ea84e81122ece0c65a739b46a747}{%
           family={Blaas},
           familyi={B\bibinitperiod},
           given={Stefan},
           giveni={S\bibinitperiod}}}%
        {{hash=82a01ae2a6a5f68f2777f533dc4287ea}{%
           family={Wirtz},
           familyi={W\bibinitperiod},
           given={Hubert},
           giveni={H\bibinitperiod}}}%
        {{hash=98b4c6f9aa3a0de0e367abc3c9ecfea5}{%
           family={Ficker},
           familyi={F\bibinitperiod},
           given={Joachim\bibnamedelima H},
           giveni={J\bibinitperiod\bibinitdelim H\bibinitperiod}}}%
        {{hash=07cf71db4eeb22cdd3279ebfbcdc2832}{%
           family={Neumeister},
           familyi={N\bibinitperiod},
           given={Wolfgang},
           giveni={W\bibinitperiod}}}%
        {{hash=fd025cedccb8b62ba8ef9e9e6aa3739d}{%
           family={Schönfeld},
           familyi={S\bibinitperiod},
           given={Nicolas},
           giveni={N\bibinitperiod}}}%
        {{hash=45a9b72f7dfea3fca689f8019c9cbe4e}{%
           family={Claussen},
           familyi={C\bibinitperiod},
           given={Martin},
           giveni={M\bibinitperiod}}}%
        {{hash=634f6c753c8e81c67f846e7f6d932e4e}{%
           family={Kneidinger},
           familyi={K\bibinitperiod},
           given={Nikolaus},
           giveni={N\bibinitperiod}}}%
        {{hash=85e44787d120d9a03b7d67a6acd3b628}{%
           family={Frankenberger},
           familyi={F\bibinitperiod},
           given={Marion},
           giveni={M\bibinitperiod}}}%
        {{hash=c9f9236c78d41f3b853f3e25c4165d28}{%
           family={Hummler},
           familyi={H\bibinitperiod},
           given={Simone},
           giveni={S\bibinitperiod}}}%
        {{hash=709ecd4bd30a07c944a93daaa9c5d37c}{%
           family={Kahn},
           familyi={K\bibinitperiod},
           given={Nicolas},
           giveni={N\bibinitperiod}}}%
        {{hash=c7a348119d5b10f955362ef9104b301f}{%
           family={Tello},
           familyi={T\bibinitperiod},
           given={Silke},
           giveni={S\bibinitperiod}}}%
        {{hash=8e474b712c00666c4f5ef095a492bb0d}{%
           family={Freise},
           familyi={F\bibinitperiod},
           given={Julia},
           giveni={J\bibinitperiod}}}%
        {{hash=b618145e7f910350fe13fd87ed82a79e}{%
           family={Welte},
           familyi={W\bibinitperiod},
           given={Tobias},
           giveni={T\bibinitperiod}}}%
        {{hash=f8066582ac875581f7625cb719c09090}{%
           family={Neuser},
           familyi={N\bibinitperiod},
           given={Petra},
           giveni={P\bibinitperiod}}}%
        {{hash=de0a12d542efe3b16460a3a707909812}{%
           family={Günther},
           familyi={G\bibinitperiod},
           given={Andreas},
           giveni={A\bibinitperiod}}}%
        {{hash=9d8b59b55cf2b968e5b59be070e4415c}{%
           family={Behr},
           familyi={B\bibinitperiod},
           given={Jürgen},
           giveni={J\bibinitperiod}}}%
        {{hash=c1e1a3dc9d6a933e52abb7ec5abfe696}{%
           family={Kreuter},
           familyi={K\bibinitperiod},
           given={Michael},
           giveni={M\bibinitperiod}}}%
        {{hash=36b4d8503cbaf02c17dd232ae8a554f0}{%
           family={Johow},
           familyi={J\bibinitperiod},
           given={Johannes},
           giveni={J\bibinitperiod}}}%
        {{hash=4fc693db17e2975dd19bc97dafb24150}{%
           family={Rabe},
           familyi={R\bibinitperiod},
           given={Klaus\bibnamedelima F},
           giveni={K\bibinitperiod\bibinitdelim F\bibinitperiod}}}%
        {{hash=a27f9a35f222a898a7dfdec55539d5f4}{%
           family={Bonella},
           familyi={B\bibinitperiod},
           given={Francesco},
           giveni={F\bibinitperiod}}}%
        {{hash=fda0f4a22b0584c090dab60c36a0f91f}{%
           family={Bonnet},
           familyi={B\bibinitperiod},
           given={Reiner},
           giveni={R\bibinitperiod}}}%
        {{hash=bb161900cafd006abd1f2de8159c054e}{%
           family={Grohe},
           familyi={G\bibinitperiod},
           given={Christian},
           giveni={C\bibinitperiod}}}%
        {{hash=d9c4323cc0237f2290f3bf00a942ca4f}{%
           family={Held},
           familyi={H\bibinitperiod},
           given={Matthias},
           giveni={M\bibinitperiod}}}%
        {{hash=9352d5226e1261af57a858310a349c49}{%
           family={Wilkens},
           familyi={W\bibinitperiod},
           given={Heinrike},
           giveni={H\bibinitperiod}}}%
        {{hash=070b41fa7758c08cc07843ba1361e4a9}{%
           family={Hammerl},
           familyi={H\bibinitperiod},
           given={Peter},
           giveni={P\bibinitperiod}}}%
        {{hash=68518de56fbddc2fae5c87f03752a365}{%
           family={Koschel},
           familyi={K\bibinitperiod},
           given={Dirk},
           giveni={D\bibinitperiod}}}%
        {{hash=bfc2ea84e81122ece0c65a739b46a747}{%
           family={Blaas},
           familyi={B\bibinitperiod},
           given={Stefan},
           giveni={S\bibinitperiod}}}%
        {{hash=82a01ae2a6a5f68f2777f533dc4287ea}{%
           family={Wirtz},
           familyi={W\bibinitperiod},
           given={Hubert},
           giveni={H\bibinitperiod}}}%
        {{hash=98b4c6f9aa3a0de0e367abc3c9ecfea5}{%
           family={Ficker},
           familyi={F\bibinitperiod},
           given={Joachim\bibnamedelima H},
           giveni={J\bibinitperiod\bibinitdelim H\bibinitperiod}}}%
        {{hash=07cf71db4eeb22cdd3279ebfbcdc2832}{%
           family={Neumeister},
           familyi={N\bibinitperiod},
           given={Wolfgang},
           giveni={W\bibinitperiod}}}%
        {{hash=203194499e9c63a46623f109afe20f8e}{%
           family={Schönfeld},
           familyi={S\bibinitperiod},
           given={Nicolaus},
           giveni={N\bibinitperiod}}}%
        {{hash=45a9b72f7dfea3fca689f8019c9cbe4e}{%
           family={Claussen},
           familyi={C\bibinitperiod},
           given={Martin},
           giveni={M\bibinitperiod}}}%
        {{hash=634f6c753c8e81c67f846e7f6d932e4e}{%
           family={Kneidinger},
           familyi={K\bibinitperiod},
           given={Nikolaus},
           giveni={N\bibinitperiod}}}%
        {{hash=85e44787d120d9a03b7d67a6acd3b628}{%
           family={Frankenberger},
           familyi={F\bibinitperiod},
           given={Marion},
           giveni={M\bibinitperiod}}}%
        {{hash=c9f9236c78d41f3b853f3e25c4165d28}{%
           family={Hummler},
           familyi={H\bibinitperiod},
           given={Simone},
           giveni={S\bibinitperiod}}}%
        {{hash=709ecd4bd30a07c944a93daaa9c5d37c}{%
           family={Kahn},
           familyi={K\bibinitperiod},
           given={Nicolas},
           giveni={N\bibinitperiod}}}%
        {{hash=c7a348119d5b10f955362ef9104b301f}{%
           family={Tello},
           familyi={T\bibinitperiod},
           given={Silke},
           giveni={S\bibinitperiod}}}%
        {{hash=8e474b712c00666c4f5ef095a492bb0d}{%
           family={Freise},
           familyi={F\bibinitperiod},
           given={Julia},
           giveni={J\bibinitperiod}}}%
        {{hash=b618145e7f910350fe13fd87ed82a79e}{%
           family={Welte},
           familyi={W\bibinitperiod},
           given={Tobias},
           giveni={T\bibinitperiod}}}%
        {{hash=f8066582ac875581f7625cb719c09090}{%
           family={Neuser},
           familyi={N\bibinitperiod},
           given={Petra},
           giveni={P\bibinitperiod}}}%
        {{hash=de0a12d542efe3b16460a3a707909812}{%
           family={Günther},
           familyi={G\bibinitperiod},
           given={Andreas},
           giveni={A\bibinitperiod}}}%
        {{hash=b36cd19e06238028e5e7798f7036d997}{%
           family={Schade-Brittinger},
           familyi={S\bibinithyphendelim B\bibinitperiod},
           given={Carmen},
           giveni={C\bibinitperiod}}}%
        {{hash=90b378fac6b0b829e5fa14641b3f9337}{%
           family={Aminossadati},
           familyi={A\bibinitperiod},
           given={Behnaz},
           giveni={B\bibinitperiod}}}%
        {{hash=6c2a6125a06bbe507c957ac05343809c}{%
           family={Nasemann},
           familyi={N\bibinitperiod},
           given={Christian},
           giveni={C\bibinitperiod}}}%
        {{hash=2405ca9daf6d21130484f34cc33f281a}{%
           family={Yahiaoui},
           familyi={Y\bibinitperiod},
           given={Soraya},
           giveni={S\bibinitperiod}}}%
        {{hash=dcc1c596844ce6331be0c1acc786dfc6}{%
           family={{Dupuy Backofen}},
           familyi={D\bibinitperiod},
           given={Christoph},
           giveni={C\bibinitperiod}}}%
        {{hash=217ef2c717d221ac1523b7d68568cbc7}{%
           family={Hahmann},
           familyi={H\bibinitperiod},
           given={Maik},
           giveni={M\bibinitperiod}}}%
        {{hash=79fbe65cf9677548eab250fc0f708a7f}{%
           family={Wittenberg},
           familyi={W\bibinitperiod},
           given={Michael},
           giveni={M\bibinitperiod}}}%
        {{hash=3def7d190fe6e209d2f69c5b4fd98ad7}{%
           family={Drakopanagiotakis},
           familyi={D\bibinitperiod},
           given={Fotis},
           giveni={F\bibinitperiod}}}%
        {{hash=c49a71b5c342e11ef6a955d43c811fad}{%
           family={{von der Beck}},
           familyi={v\bibinitperiod},
           given={Daniel},
           giveni={D\bibinitperiod}}}%
        {{hash=55bcdabf0e00eaad8f80b46d23f00da8}{%
           family={Ghofrani},
           familyi={G\bibinitperiod},
           given={Stefanie},
           giveni={S\bibinitperiod}}}%
        {{hash=144703407062874f6fdb9965aab18a0f}{%
           family={Heinemann},
           familyi={H\bibinitperiod},
           given={Sabine},
           giveni={S\bibinitperiod}}}%
        {{hash=3e8935f092f73b1a4c1ac64c93f387eb}{%
           family={Krauss},
           familyi={K\bibinitperiod},
           given={Ekaterina},
           giveni={E\bibinitperiod}}}%
        {{hash=ab193d34fefe1b3a1590c082ce20b9fa}{%
           family={Rethorn},
           familyi={R\bibinitperiod},
           given={Hella},
           giveni={H\bibinitperiod}}}%
        {{hash=256e793807edea448755a45dc25b761c}{%
           family={Koch},
           familyi={K\bibinitperiod},
           given={Andrea},
           giveni={A\bibinitperiod}}}%
        {{hash=9ae0c0ebb0f711c99cd2bdc8313dc41c}{%
           family={Leuschner},
           familyi={L\bibinitperiod},
           given={Gabriela},
           giveni={G\bibinitperiod}}}%
        {{hash=60bd99e0c48ddeab70c3ddae16d0fa31}{%
           family={Matthes},
           familyi={M\bibinitperiod},
           given={Sandhya},
           giveni={S\bibinitperiod}}}%
        {{hash=b49881bfd8c9974724130b22268df77b}{%
           family={Neurohr},
           familyi={N\bibinitperiod},
           given={Claus},
           giveni={C\bibinitperiod}}}%
        {{hash=c5b86c39b18a3c4d1d413cc744600c2f}{%
           family={Veit},
           familyi={V\bibinitperiod},
           given={Tobias},
           giveni={T\bibinitperiod}}}%
        {{hash=e4a4a7582a2fddf9b739c5059e19eada}{%
           family={Milger-Kneidinger},
           familyi={M\bibinithyphendelim K\bibinitperiod},
           given={Katrin},
           giveni={K\bibinitperiod}}}%
        {{hash=fb4f71d30188d3a9968f797e146dbbbd}{%
           family={Herth},
           familyi={H\bibinitperiod},
           given={Felix},
           giveni={F\bibinitperiod}}}%
        {{hash=cfbcc6fd01529f448868eabf097e55ea}{%
           family={Benstz},
           familyi={B\bibinitperiod},
           given={Julia},
           giveni={J\bibinitperiod}}}%
        {{hash=c9f9236c78d41f3b853f3e25c4165d28}{%
           family={Hummler},
           familyi={H\bibinitperiod},
           given={Simone},
           giveni={S\bibinitperiod}}}%
        {{hash=def89ebe2c27e79ff65f43e53c83ac3b}{%
           family={Bahmer},
           familyi={B\bibinitperiod},
           given={Thomas},
           giveni={T\bibinitperiod}}}%
        {{hash=77a780b1fc47a3981d9c5e69115e8ae9}{%
           family={Biller},
           familyi={B\bibinitperiod},
           given={Heike},
           giveni={H\bibinitperiod}}}%
        {{hash=8c7fb40db8aa62d56e82779b2fadffe8}{%
           family={Waschki},
           familyi={W\bibinitperiod},
           given={Benjamin},
           giveni={B\bibinitperiod}}}%
        {{hash=645241c811f0d63a2e92031ba5fb0ab4}{%
           family={Apel},
           familyi={A\bibinitperiod},
           given={Rosa-Marie},
           giveni={R\bibinithyphendelim M\bibinitperiod}}}%
        {{hash=05f29d29d989ca58e31a6167eb1849f6}{%
           family={Costabel},
           familyi={C\bibinitperiod},
           given={Ulrich},
           giveni={U\bibinitperiod}}}%
        {{hash=76841c0412f66ddfd472b1fa809fdd07}{%
           family={Börner},
           familyi={B\bibinitperiod},
           given={Eva},
           giveni={E\bibinitperiod}}}%
        {{hash=4df82515c02575a3a1cbf3f830a8ae3c}{%
           family={Wessendorf},
           familyi={W\bibinitperiod},
           given={Thomas},
           giveni={T\bibinitperiod}}}%
        {{hash=d1e96a60525e14d3457d2de91b6cbe5c}{%
           family={Arnrich},
           familyi={A\bibinitperiod},
           given={Margret},
           giveni={M\bibinitperiod}}}%
        {{hash=a0ffb389fdf0cf8d2e481e1ca6a76738}{%
           family={Ilie},
           familyi={I\bibinitperiod},
           given={Lacramioara},
           giveni={L\bibinitperiod}}}%
        {{hash=ba9bea557566071b75d9620757327006}{%
           family={Wald},
           familyi={W\bibinitperiod},
           given={Alexandra},
           giveni={A\bibinitperiod}}}%
        {{hash=0bd993af1fac5c1d0de39204e2d35f69}{%
           family={Seyfarth},
           familyi={S\bibinitperiod},
           given={Hans-Jürgen},
           giveni={H\bibinithyphendelim J\bibinitperiod}}}%
        {{hash=edce2bc4f87a1c5c72218043dbc52174}{%
           family={Reinhardt},
           familyi={R\bibinitperiod},
           given={Christian},
           giveni={C\bibinitperiod}}}%
        {{hash=122dcf181a9cec75542fa148e1ba34fb}{%
           family={Cinar},
           familyi={C\bibinitperiod},
           given={Atif},
           giveni={A\bibinitperiod}}}%
        {{hash=1c5a46aa5d1b8429d2c1ba665c562e7d}{%
           family={Vogler},
           familyi={V\bibinitperiod},
           given={Markus},
           giveni={M\bibinitperiod}}}%
        {{hash=38861ef62d3d74726a7c8ec7fe8965f9}{%
           family={Huhn},
           familyi={H\bibinitperiod},
           given={Siegfried\bibnamedelima Matthias},
           giveni={S\bibinitperiod\bibinitdelim M\bibinitperiod}}}%
        {{hash=f80f00e8e5ead4fca51f18904677e35c}{%
           family={Richter},
           familyi={R\bibinitperiod},
           given={Jaqueline},
           giveni={J\bibinitperiod}}}%
        {{hash=9ccdd6c8471e08961e925950dd71c4f1}{%
           family={Neff},
           familyi={N\bibinitperiod},
           given={Ulrich},
           giveni={U\bibinitperiod}}}%
        {{hash=21a2601df96d214bbaa6f5d76076f1e9}{%
           family={Blum},
           familyi={B\bibinitperiod},
           given={Torsten\bibnamedelima Gerriet},
           giveni={T\bibinitperiod\bibinitdelim G\bibinitperiod}}}%
        {{hash=0c6d5e782c89708d6eaa1ce58c6c2382}{%
           family={Vesenbeckh},
           familyi={V\bibinitperiod},
           given={Silvan},
           giveni={S\bibinitperiod}}}%
        {{hash=52960bb11fbf7a4b122291ae56e2d7c8}{%
           family={Boch},
           familyi={B\bibinitperiod},
           given={Christian},
           giveni={C\bibinitperiod}}}%
        {{hash=ee4add9bf9108cefa936a38a35d86faf}{%
           family={Semper},
           familyi={S\bibinitperiod},
           given={Hannes},
           giveni={H\bibinitperiod}}}%
        {{hash=bebaead791e5ed76ccaefe4049a9f33a}{%
           family={Wilke},
           familyi={W\bibinitperiod},
           given={Andreas},
           giveni={A\bibinitperiod}}}%
        {{hash=6e69903a7da923dff62b97ec5d1bc4e9}{%
           family={Pfeifer},
           familyi={P\bibinitperiod},
           given={Michael},
           giveni={M\bibinitperiod}}}%
        {{hash=a40cc765409e61008cb3820e2e96450e}{%
           family={Schweda},
           familyi={S\bibinitperiod},
           given={Annette},
           giveni={A\bibinitperiod}}}%
        {{hash=20c372eef2650ff16cd0d3816dda877b}{%
           family={Krill},
           familyi={K\bibinitperiod},
           given={Angelika},
           giveni={A\bibinitperiod}}}%
        {{hash=ae8ba27a98288dffd86b7622a0b5c636}{%
           family={Lensch},
           familyi={L\bibinitperiod},
           given={Christian},
           giveni={C\bibinitperiod}}}%
        {{hash=affcc6c65812d6fcbea553fc6a55cabc}{%
           family={Joa},
           familyi={J\bibinitperiod},
           given={Franziska},
           giveni={F\bibinitperiod}}}%
        {{hash=c1f3f050009af17038f730ca693a40b1}{%
           family={Schröder},
           familyi={S\bibinitperiod},
           given={Barbara},
           giveni={B\bibinitperiod}}}%
        {{hash=4fbe430069c79f4fd7202e3d5ba7354d}{%
           family={Plaßmeier},
           familyi={P\bibinitperiod},
           given={Annabel},
           giveni={A\bibinitperiod}}}%
        {{hash=5519fb0c0e4955702aa248815f23287f}{%
           family={Baron},
           familyi={B\bibinitperiod},
           given={Stefan},
           giveni={S\bibinitperiod}}}%
        {{hash=7b868544c68093f070872df7e82cb826}{%
           family={Froehling},
           familyi={F\bibinitperiod},
           given={Klaus\bibnamedelima Peter},
           giveni={K\bibinitperiod\bibinitdelim P\bibinitperiod}}}%
        {{hash=8c7fb40db8aa62d56e82779b2fadffe8}{%
           family={Waschki},
           familyi={W\bibinitperiod},
           given={Benjamin},
           giveni={B\bibinitperiod}}}%
      }
      \strng{namehash}{00775f4cecd284f4ea4915701d8af31b}
      \strng{fullhash}{e461bee39f8bce110e62063ee5d3ab77}
      \strng{bibnamehash}{00775f4cecd284f4ea4915701d8af31b}
      \strng{authorbibnamehash}{00775f4cecd284f4ea4915701d8af31b}
      \strng{authornamehash}{00775f4cecd284f4ea4915701d8af31b}
      \strng{authorfullhash}{e461bee39f8bce110e62063ee5d3ab77}
      \field{sortinit}{B}
      \field{sortinithash}{d7095fff47cda75ca2589920aae98399}
      \field{labelnamesource}{author}
      \field{labeltitlesource}{title}
      \field{issn}{2213-2600}
      \field{journaltitle}{The Lancet Respiratory Medicine}
      \field{number}{5}
      \field{title}{Pirfenidone in patients with progressive fibrotic interstitial lung diseases other than idiopathic pulmonary fibrosis (RELIEF): a double-blind, randomised, placebo-controlled, phase 2b trial}
      \field{volume}{9}
      \field{year}{2021}
      \true{nocite}
      \field{pages}{476\bibrangedash 486}
      \range{pages}{11}
      \verb{doi}
      \verb https://doi.org/10.1016/S2213-2600(20)30554-3
      \endverb
      \verb{urlraw}
      \verb https://www.sciencedirect.com/science/article/pii/S2213260020305543
      \endverb
      \verb{url}
      \verb https://www.sciencedirect.com/science/article/pii/S2213260020305543
      \endverb
    \endentry
    \entry{fox2011selfish}{article}{}
      \name{author}{3}{}{%
        {{hash=28e180ea8456d75f7137e67ae9a31989}{%
           family={Fox},
           familyi={F\bibinitperiod},
           given={Molly},
           giveni={M\bibinitperiod}}}%
        {{hash=36b4d8503cbaf02c17dd232ae8a554f0}{%
           family={Johow},
           familyi={J\bibinitperiod},
           given={Johannes},
           giveni={J\bibinitperiod}}}%
        {{hash=c432c6105483ebaf4845c1d682a7f985}{%
           family={Knapp},
           familyi={K\bibinitperiod},
           given={Leslie\bibnamedelima A},
           giveni={L\bibinitperiod\bibinitdelim A\bibinitperiod}}}%
      }
      \list{publisher}{1}{%
        {Hindawi}%
      }
      \strng{namehash}{0db9de2631f753622d1ce560ec011fec}
      \strng{fullhash}{0db9de2631f753622d1ce560ec011fec}
      \strng{bibnamehash}{0db9de2631f753622d1ce560ec011fec}
      \strng{authorbibnamehash}{0db9de2631f753622d1ce560ec011fec}
      \strng{authornamehash}{0db9de2631f753622d1ce560ec011fec}
      \strng{authorfullhash}{0db9de2631f753622d1ce560ec011fec}
      \field{sortinit}{F}
      \field{sortinithash}{2638baaa20439f1b5a8f80c6c08a13b4}
      \field{labelnamesource}{author}
      \field{labeltitlesource}{title}
      \field{journaltitle}{International journal of evolutionary biology}
      \field{title}{The selfish grandma gene: the roles of the X-chromosome and paternity uncertainty in the evolution of grandmothering behavior and longevity}
      \field{volume}{2011}
      \field{year}{2011}
      \true{nocite}
    \endentry
    \entry{hawkes2017chapter}{inbook}{}
      \name{author}{10}{}{%
        {{hash=297689ad79e43d0adb98445f2dad94b0}{%
           family={Hawkes},
           familyi={H\bibinitperiod},
           given={Kristen},
           giveni={K\bibinitperiod}}}%
        {{hash=75ecb5e579c29625b6a5d3d838e95188}{%
           family={Chisholm},
           familyi={C\bibinitperiod},
           given={James\bibnamedelima S},
           giveni={J\bibinitperiod\bibinitdelim S\bibinitperiod}}}%
        {{hash=fd30df79df9707c5c9f1a88fedbbdb59}{%
           family={Fairbanks},
           familyi={F\bibinitperiod},
           given={Lynn\bibnamedelima A},
           giveni={L\bibinitperiod\bibinitdelim A\bibinitperiod}}}%
        {{hash=36b4d8503cbaf02c17dd232ae8a554f0}{%
           family={Johow},
           familyi={J\bibinitperiod},
           given={Johannes},
           giveni={J\bibinitperiod}}}%
        {{hash=d8f5390745828093881660abcdad1b2e}{%
           family={Kalcher-Sommersguter},
           familyi={K\bibinithyphendelim S\bibinitperiod},
           given={Elfriede},
           giveni={E\bibinitperiod}}}%
        {{hash=510a220dec9b4e31159dc92e0e9b1ad6}{%
           family={Liebal},
           familyi={L\bibinitperiod},
           given={Katja},
           giveni={K\bibinitperiod}}}%
        {{hash=c6018a869287f450384593d18e19f8c4}{%
           family={Myowa},
           familyi={M\bibinitperiod},
           given={Masako},
           giveni={M\bibinitperiod}}}%
        {{hash=05fc0c67f6e3faa13981719f4c83f824}{%
           family={Sommer},
           familyi={S\bibinitperiod},
           given={Volker},
           giveni={V\bibinitperiod}}}%
        {{hash=af9d3bd9b73c89595bad9abebe05b668}{%
           family={Thierry},
           familyi={T\bibinitperiod},
           given={Bernard},
           giveni={B\bibinitperiod}}}%
        {{hash=781178ad45eac3acb06f447b09bc7f70}{%
           family={Finlay},
           familyi={F\bibinitperiod},
           given={Barbara\bibnamedelima L},
           giveni={B\bibinitperiod\bibinitdelim L\bibinitperiod}}}%
      }
      \list{publisher}{1}{%
        {MIT Press}%
      }
      \strng{namehash}{7ccce233637f742e650072c7ec821532}
      \strng{fullhash}{f79017aba94228c313802aa09fbd3726}
      \strng{bibnamehash}{7ccce233637f742e650072c7ec821532}
      \strng{authorbibnamehash}{7ccce233637f742e650072c7ec821532}
      \strng{authornamehash}{7ccce233637f742e650072c7ec821532}
      \strng{authorfullhash}{f79017aba94228c313802aa09fbd3726}
      \field{sortinit}{H}
      \field{sortinithash}{23a3aa7c24e56cfa16945d55545109b5}
      \field{labelnamesource}{author}
      \field{labeltitlesource}{title}
      \field{chapter}{Causes and Consequences of Varying Care}
      \field{edition}{Ernst-Strüngmann-Forum}
      \field{title}{The cultural nature of attachment: Contextualizing relationships and development}
      \field{volume}{22}
      \field{year}{2017}
      \true{nocite}
      \field{pages}{69}
      \range{pages}{1}
    \endentry
    \entry{johow2013disscum}{thesis}{}
      \name{author}{1}{}{%
        {{hash=36b4d8503cbaf02c17dd232ae8a554f0}{%
           family={Johow},
           familyi={J\bibinitperiod},
           given={Johannes},
           giveni={J\bibinitperiod}}}%
      }
      \list{institution}{1}{%
        {Justus-Liebig-Universität Gießen}%
      }
      \strng{namehash}{36b4d8503cbaf02c17dd232ae8a554f0}
      \strng{fullhash}{36b4d8503cbaf02c17dd232ae8a554f0}
      \strng{bibnamehash}{36b4d8503cbaf02c17dd232ae8a554f0}
      \strng{authorbibnamehash}{36b4d8503cbaf02c17dd232ae8a554f0}
      \strng{authornamehash}{36b4d8503cbaf02c17dd232ae8a554f0}
      \strng{authorfullhash}{36b4d8503cbaf02c17dd232ae8a554f0}
      \field{extraname}{1}
      \field{sortinit}{J}
      \field{sortinithash}{b2f54a9081ace9966a7cb9413811edb4}
      \field{labelnamesource}{author}
      \field{labeltitlesource}{title}
      \field{title}{Die Großmutter-Hypothese und genomische Konflikte. Konditionale Einflüße von Großmüttern auf reproduktives Verhalten in Familien der ostfriesischen Krummhörn (1720-1874)}
      \field{type}{phdthesis}
      \field{year}{2013}
      \true{nocite}
    \endentry
    \entry{johow2009thesis}{thesis}{}
      \name{author}{1}{}{%
        {{hash=36b4d8503cbaf02c17dd232ae8a554f0}{%
           family={Johow},
           familyi={J\bibinitperiod},
           given={Johannes},
           giveni={J\bibinitperiod}}}%
      }
      \list{institution}{1}{%
        {Justus-Liebig-Universität Gießen}%
      }
      \strng{namehash}{36b4d8503cbaf02c17dd232ae8a554f0}
      \strng{fullhash}{36b4d8503cbaf02c17dd232ae8a554f0}
      \strng{bibnamehash}{36b4d8503cbaf02c17dd232ae8a554f0}
      \strng{authorbibnamehash}{36b4d8503cbaf02c17dd232ae8a554f0}
      \strng{authornamehash}{36b4d8503cbaf02c17dd232ae8a554f0}
      \strng{authorfullhash}{36b4d8503cbaf02c17dd232ae8a554f0}
      \field{extraname}{2}
      \field{sortinit}{J}
      \field{sortinithash}{b2f54a9081ace9966a7cb9413811edb4}
      \field{labelnamesource}{author}
      \field{labeltitlesource}{title}
      \field{title}{Zwischengeburtenabstände und Life History Evolution. Eine Untersuchung zu reproduktionßtrategischen Mustern in Familien der ostfriesischen Krummhörn des 18. und 19. Jahrhunderts}
      \field{type}{phdthesis}
      \field{year}{2009}
      \true{nocite}
    \endentry
    \entry{johow2012conditional}{article}{}
      \name{author}{2}{}{%
        {{hash=36b4d8503cbaf02c17dd232ae8a554f0}{%
           family={Johow},
           familyi={J\bibinitperiod},
           given={Johannes},
           giveni={J\bibinitperiod}}}%
        {{hash=3565ba56995cca0a66e35d68d213fcf4}{%
           family={Voland},
           familyi={V\bibinitperiod},
           given={Eckart},
           giveni={E\bibinitperiod}}}%
      }
      \list{publisher}{1}{%
        {Springer}%
      }
      \strng{namehash}{571736f1c5beea7bcb1ce3f9aa024fd5}
      \strng{fullhash}{571736f1c5beea7bcb1ce3f9aa024fd5}
      \strng{bibnamehash}{571736f1c5beea7bcb1ce3f9aa024fd5}
      \strng{authorbibnamehash}{571736f1c5beea7bcb1ce3f9aa024fd5}
      \strng{authornamehash}{571736f1c5beea7bcb1ce3f9aa024fd5}
      \strng{authorfullhash}{571736f1c5beea7bcb1ce3f9aa024fd5}
      \field{extraname}{1}
      \field{sortinit}{J}
      \field{sortinithash}{b2f54a9081ace9966a7cb9413811edb4}
      \field{labelnamesource}{author}
      \field{labeltitlesource}{title}
      \field{journaltitle}{Human Nature}
      \field{number}{3}
      \field{title}{Conditional grandmother effects on age at marriage, age at first birth, and completed fertility of daughters and daughters-in-law in historical Krummhörn}
      \field{volume}{23}
      \field{year}{2012}
      \true{nocite}
      \field{pages}{341\bibrangedash 359}
      \range{pages}{19}
    \endentry
    \entry{johow2014chapter}{inbook}{}
      \name{author}{2}{}{%
        {{hash=36b4d8503cbaf02c17dd232ae8a554f0}{%
           family={Johow},
           familyi={J\bibinitperiod},
           given={Johannes},
           giveni={J\bibinitperiod}}}%
        {{hash=3565ba56995cca0a66e35d68d213fcf4}{%
           family={Voland},
           familyi={V\bibinitperiod},
           given={Eckart},
           giveni={E\bibinitperiod}}}%
      }
      \list{publisher}{1}{%
        {Cambridge University Press Cambridge, MA}%
      }
      \strng{namehash}{571736f1c5beea7bcb1ce3f9aa024fd5}
      \strng{fullhash}{571736f1c5beea7bcb1ce3f9aa024fd5}
      \strng{bibnamehash}{571736f1c5beea7bcb1ce3f9aa024fd5}
      \strng{authorbibnamehash}{571736f1c5beea7bcb1ce3f9aa024fd5}
      \strng{authornamehash}{571736f1c5beea7bcb1ce3f9aa024fd5}
      \strng{authorfullhash}{571736f1c5beea7bcb1ce3f9aa024fd5}
      \field{extraname}{2}
      \field{sortinit}{J}
      \field{sortinithash}{b2f54a9081ace9966a7cb9413811edb4}
      \field{labelnamesource}{author}
      \field{labeltitlesource}{title}
      \field{chapter}{Family relations among cooperative breeders: Challenges and offerings to attachment theory from evolutionary anthropology}
      \field{edition}{Hiltrud Otto and Heidi Keller}
      \field{title}{Different faces of attachment: Cultural variations on a universal human need}
      \field{volume}{27}
      \field{year}{2014}
      \true{nocite}
    \endentry
    \entry{johow2013reproductive}{inbook}{}
      \name{author}{3}{}{%
        {{hash=36b4d8503cbaf02c17dd232ae8a554f0}{%
           family={Johow},
           familyi={J\bibinitperiod},
           given={Johannes},
           giveni={J\bibinitperiod}}}%
        {{hash=3565ba56995cca0a66e35d68d213fcf4}{%
           family={Voland},
           familyi={V\bibinitperiod},
           given={Eckart},
           giveni={E\bibinitperiod}}}%
        {{hash=67c6f84ca8501c055b1cc3518243bd32}{%
           family={Willführ},
           familyi={W\bibinitperiod},
           given={Kai\bibnamedelima P},
           giveni={K\bibinitperiod\bibinitdelim P\bibinitperiod}}}%
      }
      \list{publisher}{1}{%
        {Oxford University Press1}%
      }
      \strng{namehash}{cb52a1a1c6fa23b03cacc537f6e7a93b}
      \strng{fullhash}{cb52a1a1c6fa23b03cacc537f6e7a93b}
      \strng{bibnamehash}{cb52a1a1c6fa23b03cacc537f6e7a93b}
      \strng{authorbibnamehash}{cb52a1a1c6fa23b03cacc537f6e7a93b}
      \strng{authornamehash}{cb52a1a1c6fa23b03cacc537f6e7a93b}
      \strng{authorfullhash}{cb52a1a1c6fa23b03cacc537f6e7a93b}
      \field{sortinit}{J}
      \field{sortinithash}{b2f54a9081ace9966a7cb9413811edb4}
      \field{labelnamesource}{author}
      \field{labeltitlesource}{title}
      \field{chapter}{Reproductive strategies in female postgenerative life}
      \field{edition}{M. L. Fisher and J. R. Garcia and R. S. Chang}
      \field{title}{Evolution’s empress: Darwinian perspectives on the nature of women}
      \field{year}{2013}
      \true{nocite}
      \field{pages}{243\bibrangedash 259}
      \range{pages}{17}
    \endentry
    \entry{johow2019high}{article}{}
      \name{author}{3}{}{%
        {{hash=36b4d8503cbaf02c17dd232ae8a554f0}{%
           family={Johow},
           familyi={J\bibinitperiod},
           given={Johannes},
           giveni={J\bibinitperiod}}}%
        {{hash=67c6f84ca8501c055b1cc3518243bd32}{%
           family={Willführ},
           familyi={W\bibinitperiod},
           given={Kai\bibnamedelima P},
           giveni={K\bibinitperiod\bibinitdelim P\bibinitperiod}}}%
        {{hash=3565ba56995cca0a66e35d68d213fcf4}{%
           family={Voland},
           familyi={V\bibinitperiod},
           given={Eckart},
           giveni={E\bibinitperiod}}}%
      }
      \list{publisher}{1}{%
        {Elsevier}%
      }
      \strng{namehash}{453fc830fa0637f87057df3a156b4830}
      \strng{fullhash}{453fc830fa0637f87057df3a156b4830}
      \strng{bibnamehash}{453fc830fa0637f87057df3a156b4830}
      \strng{authorbibnamehash}{453fc830fa0637f87057df3a156b4830}
      \strng{authornamehash}{453fc830fa0637f87057df3a156b4830}
      \strng{authorfullhash}{453fc830fa0637f87057df3a156b4830}
      \field{sortinit}{J}
      \field{sortinithash}{b2f54a9081ace9966a7cb9413811edb4}
      \field{labelnamesource}{author}
      \field{labeltitlesource}{title}
      \field{journaltitle}{Evolution and Human Behavior}
      \field{number}{2}
      \field{title}{High consanguinity promotes intergenerational wealth concentration in socioeconomically privileged Krummhörn families of the 18th and 19th centuries}
      \field{volume}{40}
      \field{year}{2019}
      \true{nocite}
      \field{pages}{204\bibrangedash 213}
      \range{pages}{10}
    \endentry
    \entry{johow2011presence}{article}{}
      \name{author}{4}{}{%
        {{hash=36b4d8503cbaf02c17dd232ae8a554f0}{%
           family={Johow},
           familyi={J\bibinitperiod},
           given={Johannes},
           giveni={J\bibinitperiod}}}%
        {{hash=28e180ea8456d75f7137e67ae9a31989}{%
           family={Fox},
           familyi={F\bibinitperiod},
           given={Molly},
           giveni={M\bibinitperiod}}}%
        {{hash=c432c6105483ebaf4845c1d682a7f985}{%
           family={Knapp},
           familyi={K\bibinitperiod},
           given={Leslie\bibnamedelima A},
           giveni={L\bibinitperiod\bibinitdelim A\bibinitperiod}}}%
        {{hash=3565ba56995cca0a66e35d68d213fcf4}{%
           family={Voland},
           familyi={V\bibinitperiod},
           given={Eckart},
           giveni={E\bibinitperiod}}}%
      }
      \list{publisher}{1}{%
        {Elsevier}%
      }
      \strng{namehash}{37b1d15cca15c66e7d647070afcd05e6}
      \strng{fullhash}{412fbdae4222e025ed9f720b66a296d5}
      \strng{bibnamehash}{37b1d15cca15c66e7d647070afcd05e6}
      \strng{authorbibnamehash}{37b1d15cca15c66e7d647070afcd05e6}
      \strng{authornamehash}{37b1d15cca15c66e7d647070afcd05e6}
      \strng{authorfullhash}{412fbdae4222e025ed9f720b66a296d5}
      \field{sortinit}{J}
      \field{sortinithash}{b2f54a9081ace9966a7cb9413811edb4}
      \field{labelnamesource}{author}
      \field{labeltitlesource}{title}
      \field{journaltitle}{Evolution and Human Behavior}
      \field{number}{5}
      \field{title}{The presence of a paternal grandmother lengthens interbirth interval following the birth of a granddaughter in Krummhörn (18th and 19th centuries)}
      \field{volume}{32}
      \field{year}{2011}
      \true{nocite}
      \field{pages}{315\bibrangedash 325}
      \range{pages}{11}
    \endentry
    \entry{krause2022structured}{article}{}
      \true{moreauthor}
      \true{morelabelname}
      \name{author}{10}{}{%
        {{hash=3c55871c5bc66335649fc9f13b0f75a8}{%
           family={Krause},
           familyi={K\bibinitperiod},
           given={Dietmar},
           giveni={D\bibinitperiod}}}%
        {{hash=908c48eff20b1d73f4ecdd514296e536}{%
           family={Mai},
           familyi={M\bibinitperiod},
           given={Anna},
           giveni={A\bibinitperiod}}}%
        {{hash=40ae741d0dc30288b852c8a00f70ee53}{%
           family={Denz},
           familyi={D\bibinitperiod},
           given={Robin},
           giveni={R\bibinitperiod}}}%
        {{hash=36b4d8503cbaf02c17dd232ae8a554f0}{%
           family={Johow},
           familyi={J\bibinitperiod},
           given={Johannes},
           giveni={J\bibinitperiod}}}%
        {{hash=b9cf0f22f01d9a72362413dc618e8944}{%
           family={Reese},
           familyi={R\bibinitperiod},
           given={Jens-Peter},
           giveni={J\bibinithyphendelim P\bibinitperiod}}}%
        {{hash=97c83b3c6f06cf492a30455840855f33}{%
           family={Westerhoff},
           familyi={W\bibinitperiod},
           given={Benjamin},
           giveni={B\bibinitperiod}}}%
        {{hash=8fff8f6c2c6d723a07e8b08f12c34cd8}{%
           family={Klaa{ß}en-Mielke},
           familyi={K\bibinitperiod},
           given={Renate},
           giveni={R\bibinitperiod}}}%
        {{hash=79d125cbdd03a1ed09a7c36d8f90e7d7}{%
           family={Timmesfeld},
           familyi={T\bibinitperiod},
           given={Nina},
           giveni={N\bibinitperiod}}}%
        {{hash=046cafd014042e06859df7f8ed70d532}{%
           family={Rittstieg},
           familyi={R\bibinitperiod},
           given={Annette},
           giveni={A\bibinitperiod}}}%
        {{hash=d2ec0fc54b6b3c638a28b3bd9874dcd5}{%
           family={Saracbasi-Zender},
           familyi={S\bibinithyphendelim Z\bibinitperiod},
           given={Ertan},
           giveni={E\bibinitperiod}}}%
      }
      \strng{namehash}{79188d857fbce227c2f929dd58efc2f3}
      \strng{fullhash}{c07038d505bb15aac47c8fb5744b4d9e}
      \strng{bibnamehash}{79188d857fbce227c2f929dd58efc2f3}
      \strng{authorbibnamehash}{79188d857fbce227c2f929dd58efc2f3}
      \strng{authornamehash}{79188d857fbce227c2f929dd58efc2f3}
      \strng{authorfullhash}{c07038d505bb15aac47c8fb5744b4d9e}
      \field{sortinit}{K}
      \field{sortinithash}{c02bf6bff1c488450c352b40f5d853ab}
      \field{labelnamesource}{author}
      \field{labeltitlesource}{title}
      \field{journaltitle}{Deutsches Aerzteblatt International}
      \field{number}{10}
      \field{title}{The Structured Delegation of Medical Care Services for Patients With Inflammatory Rheumatic Diseases.}
      \field{volume}{119}
      \field{year}{2022}
      \true{nocite}
      \verb{doi}
      \verb https://doi.org/10.3238%2Farztebl.m2022.0109
      \endverb
    \endentry
    \entry{neubauer2021janus}{article}{}
      \true{moreauthor}
      \true{morelabelname}
      \name{author}{10}{}{%
        {{hash=b25cac521e38b5d4385cd6d2a1e5bd55}{%
           family={Neubauer},
           familyi={N\bibinitperiod},
           given={Andreas},
           giveni={A\bibinitperiod}}}%
        {{hash=36b4d8503cbaf02c17dd232ae8a554f0}{%
           family={Johow},
           familyi={J\bibinitperiod},
           given={Johannes},
           giveni={J\bibinitperiod}}}%
        {{hash=edf3131600722771771c65fe9e6d1ed0}{%
           family={Mack},
           familyi={M\bibinitperiod},
           given={Elisabeth},
           giveni={E\bibinitperiod}}}%
        {{hash=cdec476efceffe3875ddc09c385b093c}{%
           family={Burchert},
           familyi={B\bibinitperiod},
           given={Andreas},
           giveni={A\bibinitperiod}}}%
        {{hash=ae91a883ca5c0d9e63d8e8d3f095f794}{%
           family={Meyn},
           familyi={M\bibinitperiod},
           given={Damaris},
           giveni={D\bibinitperiod}}}%
        {{hash=d5a09de0e8a054b8a31d9e84088c4fb1}{%
           family={Kadlubiec},
           familyi={K\bibinitperiod},
           given={Andrea},
           giveni={A\bibinitperiod}}}%
        {{hash=0fcda435fdd6857861ad967c0986a37e}{%
           family={Torje},
           familyi={T\bibinitperiod},
           given={Iuliu},
           giveni={I\bibinitperiod}}}%
        {{hash=79c086c1dad329f96131858ed11a73a0}{%
           family={Wulf},
           familyi={W\bibinitperiod},
           given={Hinnerk},
           giveni={H\bibinitperiod}}}%
        {{hash=3d6d01d085666d59d8330e9e3735fc4e}{%
           family={Vogelmeier},
           familyi={V\bibinitperiod},
           given={Claus\bibnamedelima F},
           giveni={C\bibinitperiod\bibinitdelim F\bibinitperiod}}}%
        {{hash=8f25c239d052517bb73deee8f6a9e9e6}{%
           family={Hoyer},
           familyi={H\bibinitperiod},
           given={Joachim},
           giveni={J\bibinitperiod}}}%
      }
      \list{publisher}{1}{%
        {Nature Publishing Group}%
      }
      \strng{namehash}{c0ef4dced4aaa28fa0b452f153cfeb02}
      \strng{fullhash}{2b6a766bd09ecfc757c0d27274628034}
      \strng{bibnamehash}{c0ef4dced4aaa28fa0b452f153cfeb02}
      \strng{authorbibnamehash}{c0ef4dced4aaa28fa0b452f153cfeb02}
      \strng{authornamehash}{c0ef4dced4aaa28fa0b452f153cfeb02}
      \strng{authorfullhash}{2b6a766bd09ecfc757c0d27274628034}
      \field{sortinit}{N}
      \field{sortinithash}{22369a73d5f88983a108b63f07f37084}
      \field{labelnamesource}{author}
      \field{labeltitlesource}{title}
      \field{journaltitle}{Leukemia}
      \field{number}{10}
      \field{title}{The janus-kinase inhibitor ruxolitinib in SARS-CoV-2 induced acute respiratory distress syndrome (ARDS)}
      \field{volume}{35}
      \field{year}{2021}
      \true{nocite}
      \field{pages}{2917\bibrangedash 2923}
      \range{pages}{7}
      \verb{doi}
      \verb https://doi.org/10.1038/s41375-021-01374-3
      \endverb
    \endentry
    \entry{steil2021brief}{article}{}
      \name{author}{10}{}{%
        {{hash=1630489e347466b979ed3fe2a38e195f}{%
           family={Steil},
           familyi={S\bibinitperiod},
           given={Regina},
           giveni={R\bibinitperiod}}}%
        {{hash=0887f5e76faf3a069d5e54aae6a668b1}{%
           family={Lechner-Meichsner},
           familyi={L\bibinithyphendelim M\bibinitperiod},
           given={Franziska},
           giveni={F\bibinitperiod}}}%
        {{hash=36b4d8503cbaf02c17dd232ae8a554f0}{%
           family={Johow},
           familyi={J\bibinitperiod},
           given={Johannes},
           giveni={J\bibinitperiod}}}%
        {{hash=73796170fc072de90574559e6e4a302b}{%
           family={Krüger-Gottschalk},
           familyi={K\bibinithyphendelim G\bibinitperiod},
           given={Antje},
           giveni={A\bibinitperiod}}}%
        {{hash=11b3f02d6631546b9de1f18e82281245}{%
           family={Mewes},
           familyi={M\bibinitperiod},
           given={Ricarda},
           giveni={R\bibinitperiod}}}%
        {{hash=b9cf0f22f01d9a72362413dc618e8944}{%
           family={Reese},
           familyi={R\bibinitperiod},
           given={Jens-Peter},
           giveni={J\bibinithyphendelim P\bibinitperiod}}}%
        {{hash=e017527274c45136ca3d009407cebef0}{%
           family={Schumm},
           familyi={S\bibinitperiod},
           given={Hannah},
           giveni={H\bibinitperiod}}}%
        {{hash=2494b142a5cf940861a0b6496dde2bf1}{%
           family={Weise},
           familyi={W\bibinitperiod},
           given={Cornelia},
           giveni={C\bibinitperiod}}}%
        {{hash=3e28b39abda4b923ba52b5517d5c1157}{%
           family={Morina},
           familyi={M\bibinitperiod},
           given={Nexhmedin},
           giveni={N\bibinitperiod}}}%
        {{hash=0a9360fcaedff1d9d0eebcffa8324002}{%
           family={Ehring},
           familyi={E\bibinitperiod},
           given={Thomas},
           giveni={T\bibinitperiod}}}%
      }
      \list{publisher}{1}{%
        {Taylor \& Francis}%
      }
      \strng{namehash}{3bded259ed7da021462d7e548304abae}
      \strng{fullhash}{6d21359f02ac2545c38671bf5aa975a3}
      \strng{bibnamehash}{3bded259ed7da021462d7e548304abae}
      \strng{authorbibnamehash}{3bded259ed7da021462d7e548304abae}
      \strng{authornamehash}{3bded259ed7da021462d7e548304abae}
      \strng{authorfullhash}{6d21359f02ac2545c38671bf5aa975a3}
      \field{sortinit}{S}
      \field{sortinithash}{b164b07b29984b41daf1e85279fbc5ab}
      \field{labelnamesource}{author}
      \field{labeltitlesource}{title}
      \field{journaltitle}{European Journal of Psychotraumatology}
      \field{number}{1}
      \field{title}{Brief imagery rescripting vs. usual care and treatment advice in refugees with posttraumatic stress disorder: study protocol for a multi-center randomized-controlled trial}
      \field{volume}{12}
      \field{year}{2021}
      \true{nocite}
      \field{pages}{1872967}
      \range{pages}{1}
    \endentry
    \entry{voland2012chapter}{inbook}{}
      \name{author}{2}{}{%
        {{hash=3565ba56995cca0a66e35d68d213fcf4}{%
           family={Voland},
           familyi={V\bibinitperiod},
           given={Eckart},
           giveni={E\bibinitperiod}}}%
        {{hash=36b4d8503cbaf02c17dd232ae8a554f0}{%
           family={Johow},
           familyi={J\bibinitperiod},
           given={Johannes},
           giveni={J\bibinitperiod}}}%
      }
      \strng{namehash}{96d031e2e93c7df4d429f24e761dbe6c}
      \strng{fullhash}{96d031e2e93c7df4d429f24e761dbe6c}
      \strng{bibnamehash}{96d031e2e93c7df4d429f24e761dbe6c}
      \strng{authorbibnamehash}{96d031e2e93c7df4d429f24e761dbe6c}
      \strng{authornamehash}{96d031e2e93c7df4d429f24e761dbe6c}
      \strng{authorfullhash}{96d031e2e93c7df4d429f24e761dbe6c}
      \field{sortinit}{V}
      \field{sortinithash}{afb52128e5b4dc4b843768c0113d673b}
      \field{labelnamesource}{author}
      \field{labeltitlesource}{title}
      \field{chapter}{Geschlecht und Geschlechterrolle: Soziobiologische Aspekte}
      \field{edition}{Bundeszentrale für politische Bildung}
      \field{journaltitle}{Aus Politik und Zeitgeschichte}
      \field{title}{Geschlechtsidentität}
      \field{year}{2012}
      \true{nocite}
    \endentry
    \entry{willfuhr2018mother}{article}{}
      \name{author}{3}{}{%
        {{hash=8999275a1f92e20363f9ac67bededdf7}{%
           family={Willführ},
           familyi={W\bibinitperiod},
           given={Kai\bibnamedelima Pierre},
           giveni={K\bibinitperiod\bibinitdelim P\bibinitperiod}}}%
        {{hash=36b4d8503cbaf02c17dd232ae8a554f0}{%
           family={Johow},
           familyi={J\bibinitperiod},
           given={Johannes},
           giveni={J\bibinitperiod}}}%
        {{hash=3565ba56995cca0a66e35d68d213fcf4}{%
           family={Voland},
           familyi={V\bibinitperiod},
           given={Eckart},
           giveni={E\bibinitperiod}}}%
      }
      \list{publisher}{1}{%
        {Public Library of Science San Francisco, CA USA}%
      }
      \strng{namehash}{c68ac80bc36cb2f4591c20133adccc29}
      \strng{fullhash}{c68ac80bc36cb2f4591c20133adccc29}
      \strng{bibnamehash}{c68ac80bc36cb2f4591c20133adccc29}
      \strng{authorbibnamehash}{c68ac80bc36cb2f4591c20133adccc29}
      \strng{authornamehash}{c68ac80bc36cb2f4591c20133adccc29}
      \strng{authorfullhash}{c68ac80bc36cb2f4591c20133adccc29}
      \field{sortinit}{W}
      \field{sortinithash}{4315d78024d0cea9b57a0c6f0e35ed0d}
      \field{labelnamesource}{author}
      \field{labeltitlesource}{title}
      \field{journaltitle}{PLoS One}
      \field{number}{3}
      \field{title}{When the mother-in-law is just as good—Differential mortality of reproductive females by family network composition}
      \field{volume}{13}
      \field{year}{2018}
      \true{nocite}
      \field{pages}{e0193252}
      \range{pages}{-1}
    \endentry
  \enddatalist
\endrefsection
\endinput

